test_1_aspect = {
	cost = 100
	modifier = {
		stability_cost_modifier = -0.15
	}
}

test_new_hovel_aspect = {
	cost = 100
	trigger = {
		owns = 4024
	}
	modifier = {
		yearly_corruption = -0.05
	}
}

test_amldihr_aspect = {
	cost = 100
	trigger = {
		owns = 4119
	}
	modifier = {
		army_tradition_decay = -0.01
	}
}