#185 - Othe | 

owner = A27
controller = A27
add_core = A27
culture = bluescale_kobold
religion = kobold_dragon_cult

hre = no

base_tax = 2
base_production = 2
base_manpower = 2

trade_goods = copper

capital = ""

is_city = yes








