#246 - Northumberland
#+Durham

owner = A46
controller = A46
add_core = A46
culture = arbarani
religion = regent_court

hre = yes

base_tax = 2
base_production = 2
base_manpower = 3

trade_goods = livestock

capital = ""

is_city = yes
fort_15th = yes 







