# - Rabat

owner = A89
controller = A89
add_core = A89
culture = arbarani
religion = regent_court

hre = yes

base_tax = 3
base_production = 3
base_manpower = 2

trade_goods = livestock

capital = ""

is_city = yes







