#362 - Delta

owner = A29
controller = A29
add_core = A29
culture = busilari
religion = regent_court

hre = no

base_tax = 4
base_production = 3
base_manpower = 3

trade_goods = cloth

capital = ""

is_city = yes
fort_15th = yes










