#534 - Volnimestin (wooltown)

owner = F15
controller = F15
add_core = F15
culture = exodus_goblin
religion = goblinic_shamanism


base_tax = 2
base_production = 2
base_manpower = 3

trade_goods = wool

capital = ""

is_city = yes











add_permanent_province_modifier = {
	name = human_minority_coexisting_large
	duration = -1
}
