# No previous file for Sumba
owner = F31
controller = F31
add_core = F31
culture = surani
religion = bulwari_sun_cult

hre = no

base_tax = 3
base_production = 3
base_manpower = 2

trade_goods = coffee

capital = ""

is_city = yes












add_permanent_province_modifier = {
	name = elven_minority_integrated_small
	duration = -1
}