#68 - Memmingen | Redfort

owner = A01
controller = A01
add_core = A01
culture = high_lorentish
religion = regent_court
hre = no
base_tax = 2
base_production = 2
trade_goods = livestock
base_manpower = 5
capital = "" 
is_city = yes
fort_15th = yes







