# No previous file for Leifsborg
owner = Z08
controller = Z08
add_core = Z08
culture = west_dalr
religion = skaldhyrric_faith

hre = no

base_tax = 2
base_production = 3
base_manpower = 2

trade_goods = naval_supplies

capital = ""

is_city = yes







