KOB_2 = {
	slot = 2
	generic = no
	ai = yes
	has_country_shield = yes
	
	potential = {
		culture_group = kobold
		capital_scope = { superregion = western_cannor_superregion }
	}
	
	KOB_control_the_greenscale_lands = {
		icon = mission_conquer_kanem_bornu

		ai = yes
		position = 2
		
		required_missions = {
			KOB_conflicts
		}
		
		provinces_to_highlight = {
			OR = {
				area = coddorran_heights_area
				province_id = 694
			}
			NOT = { owned_by = ROOT }
		}
		
		trigger = {
			coddorran_heights_area = {
				type = all
				owned_by = ROOT
			}
			694 = { owned_by = ROOT }
		}
		effect = {
			westmoor_proper_area = {
				limit = {
					NOT = { is_core = ROOT }
					NOT = { is_permanent_claim = ROOT }
				}
				add_permanent_claim = ROOT
			}
			add_country_modifier = {
				name = kobold_storm_boat
				duration = 9125
			}
		}
	}
	
	KOB_connection_to_the_dragon_coast = {
		icon = mission_rb_conquer_brittany

		ai = yes
		position = 3
		
		required_missions = {
			KOB_control_the_greenscale_lands
		}
		
		provinces_to_highlight = {
			area = westmoor_proper_area
			NOT = { owned_by = ROOT }
		}
		
		trigger = {
			westmoor_proper_area = {
				type = all
				owned_by = ROOT
			}
		}
		effect = {
			add_country_modifier = {
				name = kobold_restablished_link
				duration = 9125
			}
		}
	}
	
	KOB_prepare_for_the_storm = {
		icon = mission_conquer_andhra_vij

		ai = yes
		position = 4
		
		required_missions = {
		}
		
		provinces_to_highlight = {
		}
		
		trigger = {
			is_year = 1470
			is_at_war = no
		}
		effect = {
			capital_scope = {
				add_base_tax = 1
				add_base_manpower = 2
				add_base_production = 1
			}
		}
	}
	
	KOB_brave_the_storm = {
		icon = mission_beheading

		ai = yes
		position = 5
		
		required_missions = {
			KOB_prepare_for_the_storm
		}
		
		provinces_to_highlight = {
		}
		
		trigger = {
			is_year = 1500
		}
		effect = {
			add_country_modifier = {
				name = kobold_prepare_for_the_storm
				duration = 9125
			}
		}
	}
}

KOB_3 = {
	slot = 3
	generic = no
	ai = yes
	has_country_shield = yes
	
	potential = {
		culture_group = kobold
		capital_scope = { superregion = western_cannor_superregion }
	}
	
	KOB_conflicts = {
		icon = mission_establish_the_black_guard

		ai = yes
		position = 1
		
		required_missions = {
		}
		
		provinces_to_highlight = {
		}
		
		trigger = {
			if = {
				limit = { ai = yes }
				army_size_percentage = 0.75
			}
			else = {
				army_size_percentage = 0.95
			}
		}
		effect = {
			custom_tooltip = kobold_conflicts_tooltip
			hidden_effect = {
				dragonpoint_area = {
				limit = {
					NOT = { is_core = ROOT }
					NOT = { is_claim = ROOT }
					}
				add_claim = ROOT
				}
				dragondowns_area = {
				limit = {
					NOT = { is_core = ROOT }
					NOT = { is_claim = ROOT }
					}
				add_claim = ROOT
				}
				dragonspine_area = {
				limit = {
					NOT = { is_core = ROOT }
					NOT = { is_claim = ROOT }
					}
				add_claim = ROOT
				}
				dragonheights_area = {
				limit = {
					NOT = { is_core = ROOT }
					NOT = { is_claim = ROOT }
					}
				add_claim = ROOT
				}
				dragondepth_area = {
				limit = {
					NOT = { is_core = ROOT }
					NOT = { is_claim = ROOT }
					}
				add_claim = ROOT
				}
				coddorran_heights_area = {
				limit = {
					NOT = { is_core = ROOT }
					NOT = { is_claim = ROOT }
					}
				add_claim = ROOT
				}
				170 = {
				limit = {
					NOT = { is_core = ROOT }
					NOT = { is_claim = ROOT }
					}
				add_claim = ROOT
				}
				694 = {
				limit = {
					NOT = { is_core = ROOT }
					NOT = { is_claim = ROOT }
					}
				add_claim = ROOT
				}
			}
		}
	}
	
	KOB_control_the_bluescale_lands = {
		icon = mission_conquer_kanem_bornu

		ai = yes
		position = 2
		
		required_missions = {
			KOB_conflicts
		}
		
		provinces_to_highlight = {
			OR = {
				area = dragondepth_area
				area = dragonheights_area
				area = dragonspine_area
			}
			NOT = { owned_by = ROOT }
		}
		
		trigger = {
			dragondepth_area = {
				type = all
				owned_by = ROOT
			}
			dragonheights_area = {
				type = all
				owned_by = ROOT
			}
			dragonspine_area = {
				type = all
				owned_by = ROOT
			}
		}
		effect = {
			add_country_modifier = {
				name = kobold_bluescale
				duration = 9125
			}
		}
	}
	
	KOB_unify_the_clans = {
		icon = mission_integrate_the_purbias

		ai = yes
		position = 3
		
		required_missions = {
			KOB_control_the_bluescale_lands
			KOB_control_the_greenscale_lands
			KOB_control_the_redscale_lands
		}
		
		provinces_to_highlight = {
		}
		
		trigger = {
			if = {
				limit = { ai = no }
				stability = 3
			}
		}
		effect = {
			add_prestige = 15
			add_adm_power = 100
			add_country_modifier = {
				name = kobold_unified_clan
				duration = 18250
			}
		}
	}
	
	KOB_end_the_gnomish_hierarchy = {
		icon = mission_mounted_battle

		ai = yes
		position = 4
		
		required_missions = {
			KOB_control_the_pass
		}
		
		provinces_to_highlight = {
			OR = {
				area = storm_isles_area
				area = nimscodd_area
			}
			NOT = { owned_by = ROOT }
		}
		
		trigger = {
			storm_isles_area = {
				 type = all
				 owned_by = ROOT
			}
			nimscodd_area = {
				 type = all
				 owned_by = ROOT
			}
			NOT = { exists = A06 }
		}
		effect = {
			add_prestige = 10
			add_country_modifier = {
				name = kobold_nimscodd_end
				duration = 9125
			}
			126 = { add_claim = ROOT }
		}
	}
	
	KOB_exterminate_the_gnome = {
		icon = mission_three_death

		ai = yes
		position = 5
		
		required_missions = {
			KOB_end_the_gnomish_hierarchy
		}
		
		provinces_to_highlight = {
			province_id = 126
			NOT = { owned_by = ROOT }
		}
		
		trigger = {
			126 = { owned_by = ROOT }
		}
		effect = {
			add_prestige = 10
			126 = {
				change_culture = ROOT
				change_religion = ROOT
				add_devastation = 25
			}
		}
	}
	
	KOB_brandish_the_storm = {
		icon = mission_trade_with_cathay

		ai = yes
		position = 6
		
		required_missions = {
			KOB_exterminate_the_gnome
			KOB_brave_the_storm
			KOB_conquer_the_dragon_hills
		}
		
		provinces_to_highlight = {
		}
		
		trigger = {
			is_year = 1520
		}
		effect = {
			add_country_modifier = {
				name = kobold_survivor
				duration = 18250
			}
		}
	}
	
	KOB_expand_our_religion = {
		icon = mission_unite_rajputana

		ai = yes
		position = 7
		
		required_missions = {
			KOB_brandish_the_storm
		}
		
		provinces_to_highlight = {
		}
		
		trigger = {
			if = {
				limit = { ai = no }
				temple = 5
			}
		}
		effect = {
			add_country_modifier = {
				name = kobold_pious
				duration = 12775
			}
		}
	}
}

KOB_4 = {
	slot = 4
	generic = no
	ai = yes
	has_country_shield = yes
	
	potential = {
		culture_group = kobold
		capital_scope = { superregion = western_cannor_superregion }
	}
	
	KOB_control_the_redscale_lands = {
		icon = mission_conquer_kanem_bornu

		ai = yes
		position = 2
		
		required_missions = {
			KOB_conflicts
		}
		
		provinces_to_highlight = {
			OR = {
				area = dragonpoint_area
				area = dragondowns_area
				province_id = 170
			}
			NOT = { owned_by = ROOT }
		}
		
		trigger = {
			dragonpoint_area = {
				type = all
				owned_by = ROOT
			}
			dragondowns_area = {
				type = all
				owned_by = ROOT
			}
			170 = { owned_by = ROOT }
		}
		effect = {
			add_country_modifier = {
				name = kobold_redscale_wrath
				duration = 9125
			}
		}
	}
	
	KOB_control_the_pass = {
		icon = mission_west_african_ports

		ai = yes
		position = 3
		
		required_missions = {
			KOB_control_the_redscale_lands
		}
		
		provinces_to_highlight = {
			area = gnomish_pass_area
			NOT = { owned_by = ROOT }
		}
		
		trigger = {
			gnomish_pass_area = {
				type = all
				owned_by = ROOT
			}
		}
		effect = {
			nimscodd_area = {
				limit = {
					NOT = { is_core = ROOT }
					NOT = { is_permanent_claim = ROOT }
				}
				add_permanent_claim = ROOT
			}
			storm_isles_area = {
				limit = {
					NOT = { is_core = ROOT }
					NOT = { is_permanent_claim = ROOT }
				}
				add_permanent_claim = ROOT
			}
			reaver_coast_area = {
				limit = {
					NOT = { is_core = ROOT }
					NOT = { is_permanent_claim = ROOT }
				}
				add_permanent_claim = ROOT
			}
			iochand_area = {
				limit = {
					NOT = { is_core = ROOT }
					NOT = { is_permanent_claim = ROOT }
					NOT = { province_id = 126 }
				}
				add_permanent_claim = ROOT
			}
			add_prestige = 10
		}
	}
	
	KOB_defeat_reveria = {
		icon = mission_viking

		ai = yes
		position = 4
		
		required_missions = {
			KOB_control_the_pass
		}
		
		provinces_to_highlight = {
			OR = {
				area = reaver_coast_area
				area = iochand_area
			}
			NOT = { owned_by = ROOT }
			NOT = { province_id = 126 }
		}
		
		trigger = {
			reaver_coast_area = {
				type = all
				owned_by = ROOT
			}
			129 = { owned_by = ROOT }
			141 = { owned_by = ROOT }
			142 = { owned_by = ROOT }
			143 = { owned_by = ROOT }
		}
		effect = {
			dragonhills_area = {
				limit = {
					NOT = { is_core = ROOT }
					NOT = { is_permanent_claim = ROOT }
				}
				add_permanent_claim = ROOT
			}
		}
	}
	
	KOB_conquer_the_dragon_hills = {
		icon = mission_treasure_room

		ai = yes
		position = 5
		
		required_missions = {
			KOB_defeat_reveria
		}
		
		provinces_to_highlight = {
			area = dragonhills_area
			NOT = { owned_by = ROOT }
		}
		
		trigger = {
			dragonhills_area = {
				type = all
				owned_by = ROOT
			}
		}
		effect = {
			add_prestige = 15
			add_mil_power = 150
		}
	}
}
