country_decisions = {

	corvuria_attack_asheniande = {
		major = yes
		potential = {
			tag = A59
			NOT = { has_country_flag = asheniande_attacked }
			mission_completed = A59_imperial_distraction
			A60 = { exists = yes }
			dostanor_region = { owned_by = A60 }
		}
		allow = {
			is_at_war = no
			dostanor_region = { owned_by = A60 }
			manpower_percentage = 0.75
			NOT = { emperor = { alliance_with = A60 } }
			NOT = { war_exhaustion = 0.1 }
			NOT = { truce_with = A60 }
			any_ally = {  
				claim = A60
			}
		}
		effect = {
			hidden_effect = {
				emperor = {
					add_opinion = { who = A60 modifier = corvuria_emperor_distracted }
				}
			}
			hidden_effect = {
				emperor = { country_event = { id = corvuria.3 days = 1 } } 
			}
			custom_tooltip = corvuria_emperor_is_distracted
			declare_war = A60
			set_country_flag = asheniande_attacked
			add_dip_power = 50 #War is declared without a CB, this compensates the dip cost of the two provinces
		}
		ai_will_do = {
			factor = 1
			modifier = { #To stop the AI from suiciding
				factor = 0
				A60 = { num_of_allies = 4 }
			}
		}
		ai_importance = 400
	}
}