namespace = anb_debug

#Give Me Witch Kings
country_event = {
	id = anb_debug.1
	title = anb_debug.1.t
	desc = anb_debug.1.d
	picture = HUIZTILOPOCHTLI_eventPicture
	
	is_triggered_only = yes
	
	# Come forth!
	option = {
		name = anb_debug.1.a
		ai_chance = {
			factor = 90
		}
		
		increase_witch_king_points_large = yes
		increase_witch_king_points_large = yes
		increase_witch_king_points_large = yes
		increase_witch_king_points_large = yes
		increase_witch_king_points_large = yes
		increase_witch_king_points_large = yes
		increase_witch_king_points_large = yes
		increase_witch_king_points_large = yes
		increase_witch_king_points_large = yes
		increase_witch_king_points_large = yes
		
	}
}

##Colonist stuck on settlement growth fix
#This is Heho code, we tried to change this. It didn't work. Lesson learned, don't touch Heho code.
country_event = {
	id = anb_debug.2
	title = anb_debug.2.t
	desc = anb_debug.2.d
	picture = HUIZTILOPOCHTLI_eventPicture
	
	hidden = yes
	
	mean_time_to_happen = {
		months = 6
	}
	
	trigger = {
		#has_country_flag = avoids_colonist_settlement_growth
		num_of_colonists = 1
		NOT = { num_of_colonies = 1 }
		ai = yes
		any_owned_province = {
			has_colonist = yes
		}
	}
	
	option = {
		name = debug.6.a
		if = {
			limit = {
				has_dlc = "Dharma"
			}
			every_owned_province = {
				limit = { has_colonist = yes is_city = yes }
				cancel_construction = yes
			}
			any_owned_province = { #colonize things downstream you dumbshits
				if = {
					limit = {
						has_empty_adjacent_province = yes
					}
				}
				random_empty_neighbor_province = {
					create_colony = 1
				}
			}
			if = { #turn off the colonist if all of escann is colonized
				limit = {
					capital_scope = {
						superregion = escann_superregion
					}
				}
				if = {
					limit = {
						NOT = { num_of_colonies = 1 }
						escann_superregion = {
							is_city = yes
							type = all
						}
					}
					add_country_modifier = {
						name = dont_colonize_but_migrate
						duration = -1
					}
				}
			}
			else_if = { #turn off the colonist if all the serpentspine is colonized
				limit = {
					capital_scope = {
						continent = serpentspine
					}
					serpentspine = {
						is_city = yes
						type = all
					}
				}
				add_country_modifier = {
					name = dont_colonize_but_migrate
					duration = -1
				}
			}
			if = { #if we have no provinces to colonize, then turn off their colonist for a year. This might false postitive for new world colonizers sometimes. But the trigger for the event should mostly catch that
				limit = {
					NOT = { num_of_colonies = 1 }
				}
				if = {
					limit = {
						every_owned_province = {
							NOT = {
								has_empty_adjacent_province = yes
							}
						}
					}
				}
				add_country_modifier = {
					name = dont_colonize_temp
					duration = 365
				}
			}
		}
	}
}

##Cleaning province
province_event = {
	id = anb_debug.3
	title = anb_debug.3.t
	desc = anb_debug.3.d
	picture = HUIZTILOPOCHTLI_eventPicture
	
	hidden = yes
	is_triggered_only = yes
	
	trigger = {
		has_province_flag = cant_colonize
	}
	
	option = {
		name = debug.6.a
		
		if = {
			limit = { 
				owner = { ai = no }
			}
			clr_province_flag = cant_colonize
		}
		else = {
			add_colonysize = -1000
			clr_province_flag = cant_colonize
		}
	}
}
