
namespace = flavor_lorent

#The Ruby Crown
country_event = {
	id = flavor_lorent.1
	title = flavor_lorent.1.t
	desc = flavor_lorent.1.d
	picture = GOOD_WITH_MONARCH_eventPicture
	
	fire_only_once = yes
	
	is_triggered_only = yes
	
	option = {
		name = flavor_lorent.1.a
		
		add_country_modifier = { 
			name = lorent_ruby_crown_awakened
			duration = -1  
		}
	}


}

#The Wine Lords refuse to kneel!
# country_event = {
	# id = flavor_lorent.1
	# title = flavor_lorent.1.t
	# desc = flavor_lorent.1.d
	# picture = WAR_OF_THE_ROSES_eventPicture
	
	# fire_only_once = yes
	
	# trigger = {
		# tag = A01 #Lorent
	# }
	
	# mean_time_to_happen = {
		# months = 1
	# }
	
	# option = {		# The Wine Lords will kneel, or else!
		# name = "flavor_lorent.1.a"
		# ai_chance = { factor = 75 }	#Honestly if Lorent doesn't choose this they're dead
		# every_province = {
			# limit = {
				# OR = {
					# owned_by = A14	#Madelaire
					# owned_by = A15	#Eilisin
					# owned_by = A18	#Rubenaire
				# }
			# }
			# add_claim = A01
		# }
		# every_known_country = {
			# limit = {
				# OR = {
					# tag = A14	#Madelaire
					# tag = A15	#Eilisin
					# tag = A18	#Rubenaire
				# }
			# }
			# add_opinion = {
				# who = ROOT
				# modifier = lorent_claimed_wine_lords
			# }
		# }
		# set_country_flag = claimed_wine_lords	#Not used in anything yet, but can be!
	# }
	# option = {		# They offer a substantial purse for their autonomy.
		# name = "flavor_lorent.1.b"
		# ai_chance = { factor = 25 }
		# add_years_of_income = 1
		# every_known_country = {
			# limit = {
				# OR = {
					# tag = A14	#Madelaire
					# tag = A15	#Eilisin
					# tag = A18	#Rubenaire
				# }
			# }
			# add_opinion = {
				# who = ROOT
				# modifier = lorent_did_not_claim_wine_lords
			# }
		# }
	# }
# }

# country_event = {
	# id = flavor_lorent.2
	# title = flavor_lorent.2.t
	# desc = flavor_lorent.2.d
	# picture = WAR_OF_THE_ROSES_eventPicture
	
	# fire_only_once = yes
	
	# is_triggered_only = yes
	
	# option = {		
		# name = "flavor_lorent.2.a"
		# ai_chance = { factor = 75 }	
		
		
	# }
# }

