namespace = ogre

#Reign of Ziltagh
country_event = {
	id = ogre.1
	title = ogre.1.t
	picture = DIPLOMACY_SIGNING_eventPicture
	desc = ogre.1.d
	
	fire_only_once = yes
	is_triggered_only = yes
	
	trigger = {
		is_year = 1444
		NOT = { has_country_flag = flag_of_ziltagh }
		tag = I90
	}
	
	immediate = {
		set_country_flag = flag_of_ziltagh
	}
	
	#Long may he Reign
	option = {
		name = ogre.1.a
		ai_chance = { factor = 100 }
		add_ruler_modifier = { 
			name = reign_of_ziltagh
			duration = -1
		}
	}
}

#Warring Clans
country_event = {
	id = ogre.2
	title = ogre.2.t
	picture = VILLAGE_RAIDED_eventPicture
	desc = ogre.2.d
	
	is_triggered_only = yes
	hidden = yes
	
	trigger = {
		OR = {
			tag = J41
			tag = J42
			tag = J43
			tag = J44
			tag = J45
			tag = J46
		}
		NOT = { has_country_flag = ogre_clan }
	}
	
	immediate = {
		set_country_flag = ogre_clan
	}
	
	#WAAAGH
	option = {
		name = ogre.2.a
		ai_chance = { factor = 100 }
		every_country = {
			limit = { OR = {
				tag = J41
				tag = J42
				tag = J43
				tag = J44
				tag = J45
				tag = J46
				} 
			}
			add_opinion = { who = PREV modifier = opinion_rival_tribe }
		}
	}
}

#Hatred between Maghargma Ogres and Tribal Ogres
country_event = {
	id = ogre.3
	title = ogre.3.t
	picture = VILLAGE_RAIDED_eventPicture
	desc = ogre.3.d
	
	is_triggered_only = yes
	hidden = yes
	
	trigger = {
		OR = {
			tag = I90
			tag = J35
			tag = J36
			tag = J37
			tag = J38
			tag = J39
			tag = J40
		}
		NOT = { has_country_flag = ogre_relations_settled }
	}
	
	immediate = {
		set_country_flag = ogre_relations_settled
	}
	
	#WAAAGH
	option = {
		name = ogre.2.a
		ai_chance = { factor = 100 }
		every_country = {
			limit = { OR = {
				tag = J41
				tag = J42
				tag = J43
				tag = J44
				tag = J45
				tag = J46
				} 
			}
			add_opinion = { who = PREV modifier = decadent_royals }
		}
	}
}

#Hatred between Tribes and Maghargma Ogres
country_event = {
	id = ogre.4
	title = ogre.4.t
	picture = VILLAGE_RAIDED_eventPicture
	desc = ogre.4.d
	
	is_triggered_only = yes
	hidden = yes
	
	trigger = {
		OR = {
			tag = J41
			tag = J42
			tag = J43
			tag = J44
			tag = J45
			tag = J46
		}
		NOT = { has_country_flag = ogre_relations_settled }
	}
	
	immediate = {
		set_country_flag = ogre_relations_settled
	}
	
	#WAAAGH
	option = {
		name = ogre.2.a
		ai_chance = { factor = 100 }
		every_country = {
			limit = { OR = {
				tag = I90
				tag = J35
				tag = J36
				tag = J37
				tag = J38
				tag = J39
				tag = J40
				} 
			}
			add_opinion = { who = PREV modifier = disobedient_tribals }
		}
	}
}

#Clan Reform
country_event = {
	id = ogre.5
	title = ogre.5.t
	picture = CORRUPTION_eventPicture
	desc = ogre.5.d
	
	fire_only_once = yes
	is_triggered_only = yes
	
	trigger = {
		always = yes
	}
	
	#Centralized
	option = {
		name = ogre.5.a
		ai_chance = { factor = 100 }
		add_country_modifier = { 
			name = centralized_ogre
			duration = -1
		}
	}
	#Decentralized
	option = {
		name = ogre.5.b
		ai_chance = { factor = 100 }
		add_country_modifier = {
			name = decentralized_ogre
			duration = -1
		}
	}
}

#Land Reform
country_event = {
	id = ogre.6
	title = ogre.6.t
	picture = FARMING_eventPicture
	desc = ogre.6.d
	
	fire_only_once = yes
	is_triggered_only = yes
	
	trigger = {
		always = yes
	}
	
	#Rule by the Strong
	option = {
		name = ogre.6.a
		ai_chance = { factor = 100 }
		add_country_modifier = { 
			name = stronglords
			duration = -1
		}
	}
	#Rule by Blood
	option = {
		name = ogre.6.b
		ai_chance = { factor = 100 }
		add_country_modifier = {
			name = landlords
			duration = -1
		}
	}
}

#War Reform
country_event = {
	id = ogre.7
	title = ogre.7.t
	picture = LAND_MILITARY_eventPicture
	desc = ogre.7.d
	
	fire_only_once = yes
	is_triggered_only = yes
	
	trigger = {
		always = yes
	}
	
	#WAAAGH
	option = {
		name = ogre.7.a
		ai_chance = { factor = 100 }
		add_country_modifier = { 
			name = horde_army
			duration = -1
		}
	}
	#Warlords
	option = {
		name = ogre.7.b
		ai_chance = { factor = 100 }
		add_country_modifier = {
			name = warlord_army
			duration = -1
		}
	}
}

#Blackhand Missive
country_event = {
	id = ogre.8
	title = ogre.8.t
	picture = OVEREXTENSION_eventPicture
	desc = ogre.8.d
	
	is_triggered_only = yes
	
	trigger = {
		always = yes
	}
	
	#Submit
	option = {
		name = ogre.8.a
		ai_chance = { 
			factor = 50
			modifier = {
				factor = 10
				ruler_has_personality = craven_personality
			}
			modifier = {
				factor = 2
				ruler_has_personality = careful_personality
			}
			modifier = {
				factor = 5
				ruler_has_personality = naive_personality
			}
		}
		hidden_effect = { set_country_flag = ogre_vassal }
		add_prestige = -15
	}
	
	#Refuse
	option = {
		name = ogre.8.b
		ai_chance = {
			factor = 100
			modifier = {
				factor = 10
				ruler_has_personality = bold_fighter_personality
			}
			modifier = {
				factor = 2
				ruler_has_personality = righteous_personality
			}
			modifier = {
				factor = 5
				ruler_has_personality = incorruptible_personality
			}
		}
		hidden_effect = { set_country_flag = ogre_refuse }
		add_prestige = 10
	}
}

#The Response
country_event = {
	id = ogre.9
	title = ogre.9.t
	picture = BIG_BOOK_eventPicture
	desc = ogre.9.d
	
	is_triggered_only = yes
	fire_only_once = yes
	
	trigger = {
		always = yes
	}
	
	#Let's see
	option = {
		name = ogre.9.a
		ai_chance = { factor = 100 }
		every_country = { limit = { has_country_flag = ogre_vassal }
			ROOT = {
				create_subject = {
					subject_type = tributary_state
					subject = PREV
				}
			}
		}
		every_country = { limit = { has_country_flag = ogre_refuse }
			ROOT = {
				add_casus_belli = {
					target = PREV
					type = cb_force_tributary
					months = 300
				}
			}
		}
	}
}

#Trade Goods Change
country_event = {
	id = ogre.10
	title = ogre.10.t
	picture = TRADE_GOODS_METALS_AND_MINING_EQUIPENT_eventPicture
	desc = ogre.10.d
	
	is_triggered_only = yes
	fire_only_once = yes
	
	trigger = {
		always = yes
	}
	
	#Digging an Ogrehole
	option = {
		name = ogre.10.a
		ai_chance = { factor = 100 }
		random_list = {
			30 = {
				capital_scope = { change_trade_goods = copper }
			}
			25 = {
				capital_scope = { change_trade_goods = iron }
			}
			20 = {
				capital_scope = { change_trade_goods = gems }
			}
			20 = {
				capital_scope = { change_trade_goods = gold }
			}
			4 = {
				capital_scope = { change_trade_goods = damestear }
			}
			1 = {
				custom_tooltip = secret_ogre_damestear
				capital_scope = { 
					change_trade_goods = damestear
					hidden_effect = { set_province_flag = permanent_damestear }
				}	
			}
		}
	}
}

country_event = {
	id = ogre.11
	title = ogre.11.t
	picture = CITY_DEVELOPMENT_eventPicture
	desc = ogre.11.d
	
	is_triggered_only = yes
	
	trigger = {
		always = yes
	}
	
	#Construction Complete
	option = {
		name = ogre.11.a
		ai_chance = { factor = 100 }
		add_country_modifier = {
			name = kelaktar
			duration = -1
		}
	}
}

country_event = {
	id = ogre.12
	title = ogre.12.t
	picture = BAD_WITH_MONARCH_eventPicture
	desc = ogre.12.d
	
	is_triggered_only = yes
	fire_only_once = yes
	
	trigger = {
		always = yes
	}
	
	#Worrisome
	option = {
		name = ogre.12.a
		ai_chance = { factor = 100 }
		add_prestige = -10
	}
}

country_event = {
	id = ogre.13
	title = ogre.13.t
	picture = COMET_SIGHTED_eventPicture
	desc = ogre.13.d
	
	is_triggered_only = yes
	fire_only_once = yes
	
	trigger = {
		always = yes
	}
	
	#Nuttin
	option = {
		name = ogre.13.a
		ai_chance = { factor = 100 }
		trigger = { 
			NOT = { 
				OR = {
					has_country_flag = ecocap_mission_1
					has_country_flag = ecocap_mission_2
					has_country_flag = ecocap_mission_3
				}
			}
			NOT = { 
				OR = {
					has_country_flag = warcap_mission_1
					has_country_flag = warcap_mission_2
					has_country_flag = warcap_mission_3
				}
			}
		}
		
		every_owned_province = {
			limit = { province_group = wild_clan_lands }
			add_base_tax = -1
			add_base_production = -1
			add_base_manpower = -1
		}
		5003 = {
			move_capital_effect = yes 
			add_permanent_province_modifier = {
				name = ogrehome
				duration = -1
			}
			change_province_name = "Skurkokli"
			rename_capital = "Skurkokli"
			add_base_tax = 6
			add_base_production = 6
			add_base_manpower = 6
			add_building = fort_15th
		}
	}
	#Eco 1
	option = {
		name = ogre.13.a
		ai_chance = { factor = 100 }
		trigger = { 
			has_country_flag = ecocap_mission_1
			NOT = { 
				OR = {
					has_country_flag = warcap_mission_1
					has_country_flag = warcap_mission_2
					has_country_flag = warcap_mission_3
				}
			}
		}
		
		every_owned_province = {
			limit = { province_group = wild_clan_lands }
			add_base_tax = -1
			add_base_production = -1
			add_base_manpower = -1
		}
		5003 = {
			move_capital_effect = yes 
			add_permanent_province_modifier = {
				name = ogrehome
				duration = -1
			}
			add_permanent_province_modifier = {
				name = ecocap_mission_1
				duration = -1
			}
			change_province_name = "Skurkokli"
			rename_capital = "Skurkokli"
			add_base_tax = 6
			add_base_production = 6
			add_base_manpower = 6
			add_building = fort_15th
		}
	}
	#Eco 2
	option = {
		name = ogre.13.a
		ai_chance = { factor = 100 }
		trigger = { 
			has_country_flag = ecocap_mission_2
			NOT = { 
				OR = {
					has_country_flag = warcap_mission_1
					has_country_flag = warcap_mission_2
					has_country_flag = warcap_mission_3
				}
			}
		}
		
		every_owned_province = {
			limit = { province_group = wild_clan_landss }
			add_base_tax = -1
			add_base_production = -1
			add_base_manpower = -1
		}
		5003 = {
			move_capital_effect = yes 
			add_permanent_province_modifier = {
				name = ogrehome
				duration = -1
			}
			add_permanent_province_modifier = {
				name = ecocap_mission_2
				duration = -1
			}
			change_province_name = "Skurkokli"
			rename_capital = "Skurkokli"
			add_base_tax = 6
			add_base_production = 6
			add_base_manpower = 6
			add_building = fort_15th
			add_building = marketplace
		}
	}
	#Eco 3
	option = {
		name = ogre.13.a
		ai_chance = { factor = 100 }
		trigger = { 
			has_country_flag = ecocap_mission_3
			NOT = { 
				OR = {
					has_country_flag = warcap_mission_1
					has_country_flag = warcap_mission_2
					has_country_flag = warcap_mission_3
				}
			}
		}
		
		every_owned_province = {
			limit = { province_group = wild_clan_landss }
			add_base_tax = -1
			add_base_production = -1
			add_base_manpower = -1
		}
		5003 = {
			move_capital_effect = yes 
			add_permanent_province_modifier = {
				name = ogrehome
				duration = -1
			}
			add_permanent_province_modifier = {
				name = ecocap_mission_3
				duration = -1
			}
			change_province_name = "Skurkokli"
			rename_capital = "Skurkokli"
			add_base_tax = 6
			add_base_production = 6
			add_base_manpower = 6
			add_building = fort_15th
			add_building = marketplace
		}
	}
	#Mil 1
	option = {
		name = ogre.13.a
		ai_chance = { factor = 100 }
		trigger = { 
			has_country_flag = warcap_mission_1
			NOT = { 
				OR = {
					has_country_flag = ecocap_mission_1
					has_country_flag = ecocap_mission_2
					has_country_flag = ecocap_mission_3
				}
			}
		}
		
		every_owned_province = {
			limit = { province_group = wild_clan_lands }
			add_base_tax = -1
			add_base_production = -1
			add_base_manpower = -1
		}
		5003 = {
			move_capital_effect = yes 
			add_permanent_province_modifier = {
				name = ogrehome
				duration = -1
			}
			add_permanent_province_modifier = {
				name = warcap_mission_1
				duration = -1
			}
			change_province_name = "Skurkokli"
			rename_capital = "Skurkokli"
			add_base_tax = 6
			add_base_production = 6
			add_base_manpower = 6
		}
	}
	#Mil 2
	option = {
		name = ogre.13.a
		ai_chance = { factor = 100 }
		trigger = { 
			has_country_flag = warcap_mission_2
			NOT = { 
				OR = {
					has_country_flag = ecocap_mission_1
					has_country_flag = ecocap_mission_2
					has_country_flag = ecocap_mission_3
				}
			}
		}
				
		every_owned_province = {
			limit = { province_group = wild_clan_lands }
			add_base_tax = -1
			add_base_production = -1
			add_base_manpower = -1
		}
		5003 = {
			move_capital_effect = yes 
			add_permanent_province_modifier = {
				name = ogrehome
				duration = -1
			}
			add_permanent_province_modifier = {
				name = warcap_mission_2
				duration = -1
			}
			change_province_name = "Skurkokli"
			rename_capital = "Skurkokli"
			add_base_tax = 6
			add_base_production = 6
			add_base_manpower = 6
		}
	}
	#Mil 3
	option = {
		name = ogre.13.a
		ai_chance = { factor = 100 }
		trigger = { 
			has_country_flag = warcap_mission_3
			NOT = { 
				OR = {
					has_country_flag = ecocap_mission_1
					has_country_flag = ecocap_mission_2
					has_country_flag = ecocap_mission_3
				}
			}
		}
				
		every_owned_province = {
			limit = { province_group = wild_clan_lands }
			add_base_tax = -1
			add_base_production = -1
			add_base_manpower = -1
		}
		5003 = {
			move_capital_effect = yes 
			add_permanent_province_modifier = {
				name = ogrehome
				duration = -1
			}
			add_permanent_province_modifier = {
				name = warcap_mission_3
				duration = -1
			}
			change_province_name = "Skurkokli"
			rename_capital = "Skurkokli"
			add_base_tax = 6
			add_base_production = 6
			add_base_manpower = 6
			change_trade_goods = iron
		}
	}
	#E1 M1
	option = {
		name = ogre.13.a
		ai_chance = { factor = 100 }
		trigger = { 
			has_country_flag = ecocap_mission_1
			has_country_flag = warcap_mission_1
		}
				
		every_owned_province = {
			limit = { province_group = wild_clan_lands }
			add_base_tax = -1
			add_base_production = -1
			add_base_manpower = -1
		}
		5003 = {
			move_capital_effect = yes 
			add_permanent_province_modifier = {
				name = ogrehome
				duration = -1
			}
			add_permanent_province_modifier = {
				name = ecocap_mission_1
				duration = -1
			}
			add_permanent_province_modifier = {
				name = warcap_mission_1
				duration = -1
			}
			change_province_name = "Skurkokli"
			rename_capital = "Skurkokli"
			add_base_tax = 6
			add_base_production = 6
			add_base_manpower = 6
			add_building = fort_15th
		}
	}
	#E1 M2
	option = {
		name = ogre.13.a
		ai_chance = { factor = 100 }
		trigger = { 
			has_country_flag = ecocap_mission_1
			has_country_flag = warcap_mission_2
		}
				
		every_owned_province = {
			limit = { province_group = wild_clan_lands }
			add_base_tax = -1
			add_base_production = -1
			add_base_manpower = -1
		}
		5003 = {
			move_capital_effect = yes 
			add_permanent_province_modifier = {
				name = ogrehome
				duration = -1
			}
			add_permanent_province_modifier = {
				name = ecocap_mission_1
				duration = -1
			}
			add_permanent_province_modifier = {
				name = warcap_mission_2
				duration = -1
			}
			change_province_name = "Skurkokli"
			rename_capital = "Skurkokli"
			add_base_tax = 6
			add_base_production = 6
			add_base_manpower = 6
			add_building = fort_15th
		}
	}
	#E1 M3
	option = {
		name = ogre.13.a
		ai_chance = { factor = 100 }
		trigger = { 
			has_country_flag = ecocap_mission_1
			has_country_flag = warcap_mission_3
		}
				
		every_owned_province = {
			limit = { province_group = wild_clan_lands }
			add_base_tax = -1
			add_base_production = -1
			add_base_manpower = -1
		}
		5003 = {
			move_capital_effect = yes 
			add_permanent_province_modifier = {
				name = ogrehome
				duration = -1
			}
			add_permanent_province_modifier = {
				name = ecocap_mission_1
				duration = -1
			}
			add_permanent_province_modifier = {
				name = warcap_mission_2
				duration = -1
			}
			change_province_name = "Skurkokli"
			rename_capital = "Skurkokli"
			add_base_tax = 6
			add_base_production = 6
			add_base_manpower = 6
			add_building = fort_15th
			change_trade_goods = iron
		}
	}
	#E2 M1
	option = {
		name = ogre.13.a
		ai_chance = { factor = 100 }
		trigger = { 
			has_country_flag = ecocap_mission_2
			has_country_flag = warcap_mission_1
		}
				
		every_owned_province = {
			limit = { province_group = wild_clan_lands }
			add_base_tax = -1
			add_base_production = -1
			add_base_manpower = -1
		}
		5003 = {
			move_capital_effect = yes 
			add_permanent_province_modifier = {
				name = ogrehome
				duration = -1
			}
			add_permanent_province_modifier = {
				name = ecocap_mission_2
				duration = -1
			}
			add_permanent_province_modifier = {
				name = warcap_mission_1
				duration = -1
			}
			change_province_name = "Skurkokli"
			rename_capital = "Skurkokli"
			add_base_tax = 6
			add_base_production = 6
			add_base_manpower = 6
			add_building = fort_15th
			add_building = marketplace
		}
	}
	#E2 M2
	option = {
		name = ogre.13.a
		ai_chance = { factor = 100 }
		trigger = { 
			has_country_flag = ecocap_mission_2
			has_country_flag = warcap_mission_2
		}
				
		every_owned_province = {
			limit = { province_group = wild_clan_lands }
			add_base_tax = -1
			add_base_production = -1
			add_base_manpower = -1
		}
		5003 = {
			move_capital_effect = yes 
			add_permanent_province_modifier = {
				name = ogrehome
				duration = -1
			}
			add_permanent_province_modifier = {
				name = ecocap_mission_2
				duration = -1
			}
			add_permanent_province_modifier = {
				name = warcap_mission_2
				duration = -1
			}
			change_province_name = "Skurkokli"
			rename_capital = "Skurkokli"
			add_base_tax = 6
			add_base_production = 6
			add_base_manpower = 6
			add_building = fort_15th
			add_building = marketplace
		}
	}
	#E2 M3
	option = {
		name = ogre.13.a
		ai_chance = { factor = 100 }
		trigger = { 
			has_country_flag = ecocap_mission_2
			has_country_flag = warcap_mission_3
		}
				
		every_owned_province = {
			limit = { province_group = wild_clan_lands }
			add_base_tax = -1
			add_base_production = -1
			add_base_manpower = -1
		}
		5003 = {
			move_capital_effect = yes 
			add_permanent_province_modifier = {
				name = ogrehome
				duration = -1
			}
			add_permanent_province_modifier = {
				name = ecocap_mission_2
				duration = -1
			}
			add_permanent_province_modifier = {
				name = warcap_mission_3
				duration = -1
			}
			change_province_name = "Skurkokli"
			rename_capital = "Skurkokli"
			add_base_tax = 6
			add_base_production = 6
			add_base_manpower = 6
			add_building = fort_15th
			add_building = marketplace
			change_trade_goods = iron
		}
	}
	#E3 M1
	option = {
		name = ogre.13.a
		ai_chance = { factor = 100 }
		trigger = { 
			has_country_flag = ecocap_mission_3
			has_country_flag = warcap_mission_1
		}
				
		every_owned_province = {
			limit = { province_group = wild_clan_lands }
			add_base_tax = -1
			add_base_production = -1
			add_base_manpower = -1
		}
		5003 = {
			move_capital_effect = yes 
			add_permanent_province_modifier = {
				name = ogrehome
				duration = -1
			}
			add_permanent_province_modifier = {
				name = ecocap_mission_3
				duration = -1
			}
			add_permanent_province_modifier = {
				name = warcap_mission_1
				duration = -1
			}
			change_province_name = "Skurkokli"
			rename_capital = "Skurkokli"
			add_base_tax = 6
			add_base_production = 6
			add_base_manpower = 6
			add_building = fort_15th
			add_building = marketplace
		}
	}
	#E3 M2
	option = {
		name = ogre.13.a
		ai_chance = { factor = 100 }
		trigger = { 
			has_country_flag = ecocap_mission_3
			has_country_flag = warcap_mission_2
		}
				
		every_owned_province = {
			limit = { province_group = wild_clan_lands }
			add_base_tax = -1
			add_base_production = -1
			add_base_manpower = -1
		}
		5003 = {
			move_capital_effect = yes 
			add_permanent_province_modifier = {
				name = ogrehome
				duration = -1
			}
			add_permanent_province_modifier = {
				name = ecocap_mission_3
				duration = -1
			}
			add_permanent_province_modifier = {
				name = warcap_mission_2
				duration = -1
			}
			change_province_name = "Skurkokli"
			rename_capital = "Skurkokli"
			add_base_tax = 6
			add_base_production = 6
			add_base_manpower = 6
			add_building = fort_15th
			add_building = marketplace
		}
	}
	#E3 M3
	option = {
		name = ogre.13.a
		ai_chance = { factor = 100 }
		trigger = { 
			has_country_flag = ecocap_mission_3
			has_country_flag = warcap_mission_3
		}
				
		every_owned_province = {
			limit = { province_group = wild_clan_lands }
			add_base_tax = -1
			add_base_production = -1
			add_base_manpower = -1
		}
		5003 = {
			move_capital_effect = yes 
			add_permanent_province_modifier = {
				name = ogrehome
				duration = -1
			}
			add_permanent_province_modifier = {
				name = ecocap_mission_3
				duration = -1
			}
			add_permanent_province_modifier = {
				name = warcap_mission_3
				duration = -1
			}
			change_province_name = "Skurkokli"
			rename_capital = "Skurkokli"
			add_base_tax = 6
			add_base_production = 6
			add_base_manpower = 6
			add_building = fort_15th
			add_building = marketplace
			change_trade_goods = iron
		}
	}
}

country_event = {
	id = ogre.14
	title = ogre.14.t
	picture = BORDER_TENSION_eventPicture
	desc = ogre.14.d
	
	is_triggered_only = yes
	fire_only_once = yes
	
	trigger = {
		always = yes
	}
	
	#Offense!
	option = {
		name = ogre.14.a
		ai_chance = { factor = 100 }
		add_country_modifier = {
			name = take_the_crown
			duration = 3650
		}
	}
	
	#Defense!
	option = {
		name = ogre.14.b
		ai_chance = { factor = 100 }
		add_country_modifier = {
			name = protect_the_swamp
			duration = 3650
		}
	}
}