namespace = republic_factions

########################################
# Republic Faction Events
#
# written by Rufus Tronde
########################################

########################################
# Factions in conflict
########################################

# Traders vs Guilds

# Guild Restrictions on [Root.GetTradeGoodsName]
province_event = {
	id = republic_factions.1
	title = "republic_factions.1.t"
	desc = "republic_factions.1.d"
	picture = DEBATE_REPUBLICAN_eventPicture

	is_mtth_scaled_to_size = 1

	trigger = {
		has_dlc = "Res Publica"
		owner = {
			OR = {
				has_government_attribute = is_merchant_republic
				has_reform = veche_republic
			}
		}
		NOT = { has_province_modifier = free_trade_of_goods }
		NOT = { has_province_modifier = strong_guild }
		NOT = { trade_goods = unknown }
	}

	mean_time_to_happen = {
		months = 800
	}

	option = {
		name = "republic_factions.1.a"
		owner = {
			add_faction_influence = {
				faction = mr_traders
				influence = 10
			}
			add_faction_influence = {
				faction = mr_guilds
				influence = -10
			}
			every_owned_province = {
				limit = {
					trade_goods = ROOT
					area = ROOT
				}
				add_province_modifier = {
					name = "free_trade_of_goods"
					duration = 1095
				}
			}
		}
	}

	option = {
		name = "republic_factions.1.b"
		owner = {
			add_faction_influence = {
				faction = mr_guilds
				influence = 10
			}
			add_faction_influence = {
				faction = mr_traders
				influence = -10
			}
			every_owned_province = {
				limit = {
					trade_goods = ROOT
					area = ROOT
				}
				add_province_modifier = {
					name = "strong_guild"
					duration = 1095
				}
			}
		}
	}
}

# Guilds Push for Mercantilist Reforms
country_event = {
	id = republic_factions.2
	title = "republic_factions.2.t"
	desc = "republic_factions.2.d"
	picture = DEBATE_REPUBLICAN_eventPicture

	is_triggered_only = yes

	trigger = {
		has_dlc = "Res Publica"
		OR = {
			has_government_attribute = is_merchant_republic
			has_reform = veche_republic
		}
	}

	mean_time_to_happen = {
		days = 1
	}

	option = {
		name = "republic_factions.2.a"
		add_faction_influence = {
			faction = mr_traders
			influence = 10
		}
		add_faction_influence = {
			faction = mr_guilds
			influence = -10
		}
		add_dip_power = 50
	}

	option = {
		name = "republic_factions.2.b"
		add_faction_influence = {
			faction = mr_guilds
			influence = 10
		}
		add_faction_influence = {
			faction = mr_traders
			influence = -10
		}
		add_mercantilism = 1
		add_adm_power = -50
		add_dip_power = -50
	}
}

# Merchants Call for Increased Imports
province_event = {
	id = republic_factions.3
	title = "republic_factions.3.t"
	desc = "republic_factions.3.d"
	picture = HARBOUR_eventPicture

	is_mtth_scaled_to_size = 1

	trigger = {
		has_dlc = "Res Publica"
		owner = {
			OR = {
				has_government_attribute = is_merchant_republic
				has_reform = veche_republic
			}
		}
		NOT = { has_province_modifier = strong_guild }
		NOT = {
			has_trade_modifier = {
				who = root
				key = allowed_imports
			}
		}
	}

	mean_time_to_happen = {
		months = 800
	}

	option = {
		name = "republic_factions.3.a"
		owner = {
			add_faction_influence = {
				faction = mr_traders
				influence = 10
			}
			add_faction_influence = {
				faction = mr_guilds
				influence = -10
			}
			every_active_trade_node = {
				limit = {
					any_trade_node_member_province = {
						trade_goods = ROOT
					}
				}
				add_trade_modifier = {
					who = root
					duration = 1095
					power = 10
					key = allowed_imports
				}
			}
		}
	}

	option = {
		name = "republic_factions.3.b"
		owner = {
			add_faction_influence = {
				faction = mr_guilds
				influence = 10
			}
			add_faction_influence = {
				faction = mr_traders
				influence = -10
			}
			every_owned_province = {
				limit = {
					trade_goods = ROOT
				}
				add_province_modifier = {
					name = "strong_guild"
					duration = 1095
				}
			}
		}
	}
}

# Guilds vs Aristocrats

# Guild Leaders Rival Nobles' Status
province_event = {
	id = republic_factions.4
	title = "republic_factions.4.t"
	desc = "republic_factions.4.d"
	picture = MERCHANTS_TALKING_eventPicture

	is_mtth_scaled_to_size = 1

	trigger = {
		has_dlc = "Res Publica"
		owner = {
			OR = {
				has_government_attribute = is_merchant_republic
				has_reform = veche_republic
			}
		}
		NOT = { has_province_modifier = influential_nobles }
		NOT = { has_province_modifier = influential_guild_members }
	}

	mean_time_to_happen = {
		months = 800
	}

	option = {
		name = "republic_factions.4.a"
		owner = {
			add_faction_influence = {
				faction = mr_guilds
				influence = 10
			}
			add_faction_influence = {
				faction = mr_aristocrats
				influence = -10
			}
			add_prestige = -15
		}
		add_province_modifier = {
			name = "influential_guild_members"
			duration = 1095
		}
	}

	option = {
		name = "republic_factions.4.b"
		owner = {
			add_faction_influence = {
				faction = mr_aristocrats
				influence = 10
			}
			add_faction_influence = {
				faction = mr_guilds
				influence = -10
			}
			add_adm_power = -10
			add_dip_power = -10
			add_mil_power = -10
		}
		add_province_modifier = {
			name = "influential_nobles"
			duration = 1095
		}
	}
}

# Secret Societies in Government
country_event = {
	id = republic_factions.5
	title = "republic_factions.5.t"
	desc = "republic_factions.5.d"
	picture = SPY_eventPicture

	is_triggered_only = yes

	trigger = {
		has_dlc = "Res Publica"
		OR = {
			has_government_attribute = is_merchant_republic
			has_reform = veche_republic
		}
		NOT = { has_country_modifier = paranoid_recruitment }
	}

	mean_time_to_happen = {
		days = 1
	}

	option = {
		name = "republic_factions.5.a"
		add_faction_influence = {
			faction = mr_guilds
			influence = 10
		}
		add_faction_influence = {
			faction = mr_aristocrats
			influence = -10
		}
		add_stability_or_adm_power = yes
		add_prestige = -15
		custom_tooltip = "republic_factions.5.a.tt"
		hidden_effect = {
			random_list = {
				30 = { country_event = { id = republic_factions.6 days = 730 } }
				20 = { country_event = { id = republic_factions.6 days = 1460 } }
				50 = {}
			}
		}
	}

	option = {
		name = "republic_factions.5.b"
		add_faction_influence = {
			faction = mr_aristocrats
			influence = 10
		}
		add_faction_influence = {
			faction = mr_guilds
			influence = -10
		}
		add_prestige = 10
		add_country_modifier = {
			name = "paranoid_recruitment"
			duration = 1095
		}
	}
}

# Guild Before Country
country_event = {
	id = republic_factions.6
	title = "republic_factions.6.t"
	desc = "republic_factions.6.d"
	picture = ACCUSATION_eventPicture

	is_triggered_only = yes

	trigger = {
		has_dlc = "Res Publica"
		has_advisor = yes
	}

	option = {
		name = "republic_factions.6.a"
		kill_advisor = random
		add_adm_power = -50
	}

	option = {
		name = "republic_factions.6.b"
		add_adm_power = -100
	}
}

# International Guild Contacts
country_event = {
	id = republic_factions.7
	title = "republic_factions.7.t"
	desc = "republic_factions.7.d"
	picture = DIPLOMACY_eventPicture

	is_triggered_only = yes

	trigger = {
		has_dlc = "Res Publica"
		OR = {
			has_government_attribute = is_merchant_republic
			has_reform = veche_republic
		}
		NOT = { has_country_modifier = foreign_guild_infiltrated }
		NOT = { has_country_modifier = guilds_compromised }
		NOT = { has_country_modifier = suspended_diplomat }
		
	}

	mean_time_to_happen = {
		days = 1
	}

	option = {
		name = "republic_factions.7.a"
		add_faction_influence = {
			faction = mr_guilds
			influence = 10
		}
		add_faction_influence = {
			faction = mr_aristocrats
			influence = -10
		}
		random_list = {
			50 = {
				add_country_modifier = {
					name = "foreign_guild_infiltrated"
					duration = 1095
				}
			}
			50 = {
				add_country_modifier = {
					name = "guilds_compromised"
					duration = 1095
				}
			}
		}
	}

	option = {
		name = "republic_factions.7.b"
		add_faction_influence = {
			faction = mr_aristocrats
			influence = 10
		}
		add_faction_influence = {
			faction = mr_guilds
			influence = -10
		}
		add_country_modifier = {
			name = "suspended_diplomat"
			duration = 1095
		}
	}
}

# Aristocrats vs Traders

# Noble Legacy of [Root.GetName]
province_event = {
	id = republic_factions.8
	title = "republic_factions.8.t"
	desc = "republic_factions.8.d"
	picture = GREAT_BUILDING_eventPicture

	is_mtth_scaled_to_size = 1

	trigger = {
		has_dlc = "Res Publica"
		owner = {
			OR = {
				has_government_attribute = is_merchant_republic
				has_reform = veche_republic
			}
		}
		NOT = { has_province_modifier = trade_with_neighbor }
		any_neighbor_province = {
			NOT = {
				owner = { tag = ROOT }
			}
			NOT = { is_claim = ROOT }
		}
	}

	mean_time_to_happen = {
		months = 800
	}

	option = {
		name = "republic_factions.8.a"
		owner = {
			add_faction_influence = {
				faction = mr_aristocrats
				influence = 10
			}
			add_faction_influence = {
				faction = mr_traders
				influence = -10
			}
		}
		random_neighbor_province = {
			limit = {
				NOT = {
					owner = { tag = ROOT }
				}
				NOT = { is_claim = ROOT }
			}
			add_claim = ROOT
		}
	}

	option = {
		name = "republic_factions.8.b"
		owner = {
			add_faction_influence = {
				faction = mr_traders
				influence = 10
			}
			add_faction_influence = {
				faction = mr_aristocrats
				influence = -10
			}
		}
		add_province_modifier = {
			name = "trade_with_neighbor"
			duration = 1095
		}
		random_neighbor_province = {
			limit = {
				NOT = {
					owner = { tag = ROOT }
				}
			}
			owner = {
				add_opinion = {
					who = ROOT
					modifier = goods_crossing_borders
				}
			}
		}
	}
}

# Candidates Vie for Opportunities
country_event = {
	id = republic_factions.9
	title = "republic_factions.9.t"
	desc = "republic_factions.9.d"
	picture = DEBATE_REPUBLICAN_eventPicture

	is_triggered_only = yes

	trigger = {
		has_dlc = "Res Publica"
		OR = {
			has_government_attribute = is_merchant_republic
			has_reform = veche_republic
		}
	}

	mean_time_to_happen = {
		days = 1
	}
	
	immediate = {
		check_if_non_state_advisor_effect = { #Hidden, must be followed by erase_advisor_flags_effect
			chance_of_primary = 75 #Not percentages!
			chance_of_tertiary = 10
			chance_of_secondary = 25
		}
	}

	option = {
		name = "republic_factions.9.a"
		add_faction_influence = {
			faction = mr_aristocrats
			influence = 10
		}
		add_faction_influence = {
			faction = mr_traders
			influence = -10
		}
		generate_advisor_of_type_and_semi_random_religion_effect = {
			advisor_type=commandant
			advisor_type_if_not_state=commandant
			scaled_skill = yes
			discount=yes
		}
		add_dip_power = -30
	}

	option = {
		name = "republic_factions.9.b"
		add_faction_influence = {
			faction = mr_traders
			influence = 10
		}
		add_faction_influence = {
			faction = mr_aristocrats
			influence = -10
		}
		generate_advisor_of_type_and_semi_random_religion_effect = {
			advisor_type=trader
			advisor_type_if_not_state=trader
			scaled_skill = yes
			discount=yes
		}
		add_mil_power = -30
	}
	after = {
		erase_advisor_flags_effect = yes
	}
}

# Trade between Rivals
country_event = {
	id = republic_factions.10
	title = "republic_factions.10.t"
	desc = "republic_factions.10.d"
	picture = MERCHANTS_TALKING_eventPicture

	is_triggered_only = yes

	trigger = {
		has_dlc = "Res Publica"
		OR = {
			has_government_attribute = is_merchant_republic
			has_reform = veche_republic
		}
		any_rival_country = {
			NOT = { war_with = ROOT }
			NOT = { trade_embargo_by = ROOT }
		}
	}

	mean_time_to_happen = {
		days = 1
	}

	option = {
		name = "republic_factions.10.a"
		add_faction_influence = {
			faction = mr_aristocrats
			influence = 10
		}
		add_faction_influence = {
			faction = mr_traders
			influence = -10
		}
		add_years_of_income = -0.3
		add_mil_power = 25
	}

	option = {
		name = "republic_factions.10.b"
		add_faction_influence = {
			faction = mr_traders
			influence = 10
		}
		add_faction_influence = {
			faction = mr_aristocrats
			influence = -10
		}
		random_rival_country = {
			country_event = { id = republic_factions.11 days = 7 tooltip = "republic_factions.10.b.tt" }
		}
		add_dip_power = 25
	}
}

# [From.GetName] Opens for Trade
country_event = {
	id = republic_factions.11
	title = "republic_factions.11.t"
	desc = "republic_factions.11.d"
	picture = MERCHANTS_TALKING_eventPicture

	is_triggered_only = yes

	option = {
		name = "republic_factions.11.a"
		FROM = {
			random_active_trade_node = {
				add_trade_modifier = {
					who = root
					duration = 1095
					power = 10
					key = enemy_allowed_trade
				}
			}
		}
	}
}

########################################
# Corruption Events
########################################

# Offer from $ARTIST$
country_event = {
	id = republic_factions.12
	title = "republic_factions.12.t"
	desc = "republic_factions.12.d"
	picture = CORRUPTION_eventPicture

	is_triggered_only = yes

	trigger = {
		has_dlc = "Res Publica"
		OR = {
			has_government_attribute = is_merchant_republic
			has_reform = veche_republic
		}
		faction_in_power = mr_guilds
		advisor = artist
	}

	mean_time_to_happen = {
		days = 1
	}

	option = {
		name = "republic_factions.12.a"
		remove_advisor = artist
		add_faction_influence = {
			faction = mr_guilds
			influence = -15
		}
		if = {
			limit = {
				corruption = 0.01
			}
			add_corruption = -0.5
		}
	}

	option = {
		name = "republic_factions.12.b"
		add_years_of_income = 0.5
		add_corruption = 0.5
		add_republican_tradition = -5
	}
}

# Offer from $TRADER$
country_event = {
	id = republic_factions.13
	title = "republic_factions.13.t"
	desc = "republic_factions.13.d"
	picture = CORRUPTION_eventPicture

	is_triggered_only = yes

	trigger = {
		has_dlc = "Res Publica"
		OR = {
			has_government_attribute = is_merchant_republic
			has_reform = veche_republic
		}
		faction_in_power = mr_traders
		advisor = trader
	}

	mean_time_to_happen = {
		days = 1
	}

	option = {
		name = "republic_factions.13.a"
		remove_advisor = trader
		add_faction_influence = {
			faction = mr_traders
			influence = -15
		}
		add_corruption = -0.5

	}

	option = {
		name = "republic_factions.13.b"
		add_years_of_income = 0.5
		add_republican_tradition = -3
		add_corruption = 0.5
	}
}

# Offer from $COMMANDANT$
country_event = {
	id = republic_factions.14
	title = "republic_factions.14.t"
	desc = "republic_factions.14.d"
	picture = CORRUPTION_eventPicture

	is_triggered_only = yes

	trigger = {
		has_dlc = "Res Publica"
		OR = {
			has_government_attribute = is_merchant_republic
			has_reform = veche_republic
		}
		faction_in_power = mr_aristocrats
		advisor = commandant
	}

	mean_time_to_happen = {
		days = 1
	}

	option = {
		name = "republic_factions.14.a"
		remove_advisor = commandant
		add_faction_influence = {
			faction = mr_aristocrats
			influence = -15
		}
		if = {
			limit = {
				corruption = 1
			}
			add_corruption = -2
		}
	}

	option = {
		name = "republic_factions.14.b"
		add_years_of_income = 0.6
		add_corruption = 2
		add_republican_tradition = -10
	}
}

#  The Inner Circle
country_event = {
	id = republic_factions.15
	title = "republic_factions.15.t"
	desc = "republic_factions.15.d"
	picture = DIPLOMACY_eventPicture

	is_triggered_only = yes

	trigger = {
		has_dlc = "Res Publica"
		OR = {
			has_government_attribute = is_merchant_republic
			has_reform = veche_republic
		}
		NOT = { faction_in_power = mr_guilds }
	}

	mean_time_to_happen = {
		days = 1
	}

	option = {
		name = "republic_factions.15.a"
		add_adm_power = -50
	}

	option = {
		name = "republic_factions.15.b"
		add_republican_tradition = -5
		add_faction_influence = {
			faction = mr_guilds
			influence = 15
		}
	}
}

# A Beneficial Transaction
country_event = {
	id = republic_factions.16
	title = "republic_factions.16.t"
	desc = "republic_factions.16.d"
	picture = CORRUPTION_eventPicture

	is_triggered_only = yes

	trigger = {
		has_dlc = "Res Publica"
		OR = {
			has_government_attribute = is_merchant_republic
			has_reform = veche_republic
		}
		NOT = { faction_in_power = mr_traders }
	}

	mean_time_to_happen = {
		days = 1
	}

	option = {
		name = "republic_factions.16.a"
		add_dip_power = -50
	}

	option = {
		name = "republic_factions.16.b"
		add_republican_tradition = -5
		add_faction_influence = {
			faction = mr_traders
			influence = 15
		}
	}
}

# Thicker Than Water
country_event = {
	id = republic_factions.17
	title = "republic_factions.17.t"
	desc = "republic_factions.17.d"
	picture = DIPLOMACY_eventPicture

	is_triggered_only = yes

	trigger = {
		has_dlc = "Res Publica"
		OR = {
			has_government_attribute = is_merchant_republic
			has_reform = veche_republic
		}
		NOT = { faction_in_power = mr_aristocrats }
	}

	mean_time_to_happen = {
		days = 1
	}

	option = {
		name = "republic_factions.17.a"
		add_mil_power = -50
	}

	option = {
		name = "republic_factions.17.b"
		add_republican_tradition = -5
		add_faction_influence = {
			faction = mr_aristocrats
			influence = 15
		}
	}
}

########################################
# Bonuses for Faction in Power
########################################

# Guilds in Cooperation
country_event = {
	id = republic_factions.18
	title = "republic_factions.18.t"
	desc = "republic_factions.18.d"
	picture = MERCHANTS_TALKING_eventPicture

	is_triggered_only = yes

	trigger = {
		has_dlc = "Res Publica"
		OR = {
			has_government_attribute = is_merchant_republic
			has_reform = veche_republic
		}
		faction_in_power = mr_guilds
	}

	mean_time_to_happen = {
		days = 1
	}

	option = {
		name = "republic_factions.18.a"
		add_country_modifier = {
			name = "guilds_cooperating"
			duration = 1095
		}
	}
}

# Traders Look Abroad
country_event = {
	id = republic_factions.19
	title = "republic_factions.19.t"
	desc = "republic_factions.19.d"
	picture = SHIP_SAILING_eventPicture

	is_triggered_only = yes

	trigger = {
		has_dlc = "Res Publica"
		OR = {
			has_government_attribute = is_merchant_republic
			has_reform = veche_republic
		}
		faction_in_power = mr_traders
	}

	mean_time_to_happen = {
		days = 1
	}

	option = {
		name = "republic_factions.19.a"
		add_country_modifier = {
			name = "traders_look_abroad"
			duration = 1095
		}
	}
}

# Aristocrats Put Differences Aside
country_event = {
	id = republic_factions.20
	title = "republic_factions.20.t"
	desc = "republic_factions.20.d"
	picture = DIPLOMACY_eventPicture

	is_triggered_only = yes

	trigger = {
		has_dlc = "Res Publica"
		has_government_attribute = is_merchant_republic
		faction_in_power = mr_aristocrats
	}

	mean_time_to_happen = {
		days = 1
	}

	option = {
		name = "republic_factions.20.a"
		add_country_modifier = {
			name = "aristocracy_united"
			duration = 1095
		}
	}
}

########################################
# Penalties for Faction not in Power
########################################

# Guilds Obstruct Trade
province_event = {
	id = republic_factions.21
	title = "republic_factions.21.t"
	desc = "republic_factions.21.d"
	picture = TRADEGOODS_eventPicture

	is_mtth_scaled_to_size = 1

	trigger = {
		has_dlc = "Res Publica"
		owner = {
			OR = {
				has_government_attribute = is_merchant_republic
				has_reform = veche_republic
			}
			NOT = { faction_in_power = mr_guilds }
		}
	}

	mean_time_to_happen = {
		months = 800
	}

	option = {
		name = "republic_factions.21.a"
		owner = {
			every_owned_province = {
				limit = {
					trade_goods = ROOT
				}
				add_province_modifier = {
					name = "guilds_obstruct_trade"
					duration = 1095
				}
			}
		}
	}
}


# Trader Refuses to Serve Republic
country_event = {
	id = republic_factions.22
	title = "republic_factions.22.t"
	desc = "republic_factions.22.d"
	picture = DEBATE_REPUBLICAN_eventPicture

	is_triggered_only = yes

	trigger = {
		has_dlc = "Res Publica"
		OR = {
			has_government_attribute = is_merchant_republic
			has_reform = veche_republic
		}
		NOT = { faction_in_power = mr_traders }
	}

	mean_time_to_happen = {
		days = 1
	}

	option = {
		name = "republic_factions.22.a"
		random_active_trade_node = {
			add_trade_modifier = {
				who = root
				duration = 1095
				power = -15
				key = uncooperative_trader
			}
		}
	}
}

# Aristocrats Reject Republic
country_event = {
	id = republic_factions.23
	title = "republic_factions.23.t"
	desc = "republic_factions.23.d"
	picture = BATTLE_eventPicture

	is_triggered_only = yes

	trigger = {
		has_dlc = "Res Publica"
		OR = {
			has_government_attribute = is_merchant_republic
			has_reform = veche_republic
		}
		NOT = { faction_in_power = mr_aristocrats }
	}

	mean_time_to_happen = {
		days = 1
	}

	option = {
		name = "republic_factions.23.a"
		random_owned_province = {
			limit = {
				is_overseas = no
			}
			spawn_rebels = {
				type = noble_rebels
				size = 2
			}
		}
	}
}

### Rare Bonus Event
# The Family Act
country_event = {
	id = republic_factions.24
	title = "republic_factions.24.t"
	desc = "republic_factions.24.d"
	picture = THEATRE_eventPicture

	is_triggered_only = yes

	trigger = {
		has_dlc = "Res Publica"
		OR = {
			has_government_attribute = is_merchant_republic
			has_reform = veche_republic
		}
		NOT = { faction_in_power = mr_aristocrats }
	}

	mean_time_to_happen = {
		days = 1
	}

	option = {
		name = "republic_factions.24.a"
		add_faction_influence = {
			faction = mr_aristocrats
			influence = -20
		}
	}

	option = {
		name = "republic_factions.24.b"
		add_stability = -1
	}
}

########################################
# Violence in the Streets
########################################

# Revolution against Guilds
country_event = {
	id = republic_factions.101
	title = "republic_factions.101.t"
	desc = "republic_factions.101.d"
	picture = ANGRY_MOB_eventPicture

	trigger = {
		has_dlc = "Res Publica"
		OR = {
			has_government_attribute = is_merchant_republic
			has_reform = veche_republic
		}
		NOT = { has_ruler_flag = republic_revolution }
		NOT = { is_orangists_in_power = yes }
		faction_influence = {
			faction = mr_guilds
			influence = 80
		}
	}

	mean_time_to_happen = {
		months = 300
		modifier = {
			factor = 0.9
			faction_influence = {
				faction = mr_guilds
				influence = 90
			}
		}
		modifier = {
			factor = 0.9
			faction_influence = {
				faction = mr_guilds
				influence = 95
			}
		}
		modifier = {
			factor = 0.9
			faction_influence = {
				faction = mr_guilds
				influence = 100
			}
		}
		modifier = {
			factor = 0.9
			NOT = {
				faction_influence = {
					faction = mr_traders
					influence = 5
				}
			}
		}
		modifier = {
			factor = 0.9
			NOT = {
				faction_influence = {
					faction = mr_aristocrats
					influence = 5
				}
			}
		}
		modifier = {
			factor = 0.95
			NOT = { stability = 2 }
		}
		modifier = {
			factor = 0.95
			NOT = { stability = 1 }
		}
		modifier = {
			factor = 0.95
			NOT = { stability = 0 }
		}
		modifier = {
			factor = 0.8
			NOT = { stability = 2 }
		}
		modifier = {
			factor = 0.9
			NOT = { republican_tradition = 80 }
		}
		modifier = {
			factor = 0.9
			NOT = { republican_tradition = 60 }
		}
		modifier = {
			factor = 0.9
			NOT = { republican_tradition = 40 }
		}
	}

	immediate = {
		set_ruler_flag = "republic_revolution"
	}

	option = {
		name = "republic_factions.101.a" # We cannot allow the Republic to engulf in anarchy of the masses.
		add_stability = -1
		add_prestige = -15
		add_republican_tradition = -20
		if = {
			limit = {
				num_of_cities = 2
				any_owned_province = {
					is_capital = no
					is_in_capital_area = yes
				}
			}
			random_owned_province = {
				limit = {
					is_capital = no
					is_in_capital_area = yes
					owner = { adm_tech = 22 }
				}
				spawn_rebels = {
					type = revolutionary_rebels
					size = 2
				}
			}
			random_owned_province = {
				limit = {
					is_capital = no
					is_in_capital_area = yes
					owner = { NOT = { adm_tech = 22 } }
				}
				spawn_rebels = {
					type = noble_rebels
					size = 2
				}
			}
		}
		if = {
			limit = {
				OR = {
					NOT = { num_of_cities = 2 }
					NOT = {
						any_owned_province = {
							is_capital = no
							is_in_capital_area = yes
						}
					}
				}
				capital_scope = {
					NOT = { has_province_modifier = wrecked_by_factional_riots } #If you already have it nothing happens, you're poor enough as it is.
				}
			}
			capital_scope = {
				add_province_modifier = {
					name = "wrecked_by_factional_riots"
					duration = 1825
				}
			}
		}
	}

	option = {
		name = "republic_factions.101.b" # If these savages burn shops, what will they do next?
		custom_tooltip = republic_factions.103.b.tt
		add_stability = -1
		add_years_of_income = -0.25
		add_republican_tradition = 5
		add_faction_influence = {
			faction = mr_guilds
			influence = -60
		}
		set_ruler_flag = leader_has_been_pushed_out
		country_event = { id = 700 }
	}
}


# Revolution against Traders
country_event = {
	id = republic_factions.102
	title = "republic_factions.102.t"
	desc = "republic_factions.102.d"
	picture = ANGRY_MOB_eventPicture

	trigger = {
		has_dlc = "Res Publica"
		OR = {
			has_government_attribute = is_merchant_republic
			has_reform = veche_republic
		}
		NOT = { has_ruler_flag = republic_revolution }
		NOT = { is_orangists_in_power = yes }
		faction_influence = {
			faction = mr_traders
			influence = 80
		}
	}

	mean_time_to_happen = {
		months = 300
		modifier = {
			factor = 0.9
			faction_influence = {
				faction = mr_traders
				influence = 90
			}
		}
		modifier = {
			factor = 0.9
			faction_influence = {
				faction = mr_traders
				influence = 95
			}
		}
		modifier = {
			factor = 0.9
			faction_influence = {
				faction = mr_traders
				influence = 100
			}
		}
		modifier = {
			factor = 0.9
			NOT = {
				faction_influence = {
					faction = mr_guilds
					influence = 5
				}
			}
		}
		modifier = {
			factor = 0.9
			NOT = {
				faction_influence = {
					faction = mr_aristocrats
					influence = 5
				}
			}
		}
		modifier = {
			factor = 0.95
			NOT = { stability = 2 }
		}
		modifier = {
			factor = 0.95
			NOT = { stability = 1 }
		}
		modifier = {
			factor = 0.95
			NOT = { stability = 0 }
		}
		modifier = {
			factor = 0.8
			NOT = { stability = 2 }
		}
		modifier = {
			factor = 0.9
			NOT = { republican_tradition = 80 }
		}
		modifier = {
			factor = 0.9
			NOT = { republican_tradition = 60 }
		}
		modifier = {
			factor = 0.9
			NOT = { republican_tradition = 40 }
		}
	}

	immediate = {
		set_ruler_flag = "republic_revolution"
	}

	option = {
		name = "republic_factions.102.a" # Let us not be intimidated by a bunch of scoundrels!
		add_stability = -1
		add_prestige = -15
		add_republican_tradition = -20
		if = {
			limit = {
				num_of_cities = 2
				any_owned_province = {
					is_capital = no
					is_in_capital_area = yes
				}
			}
			random_owned_province = {
				limit = {
					is_capital = no
					is_in_capital_area = yes
					owner = { adm_tech = 22 }
				}
				spawn_rebels = {
					type = revolutionary_rebels
					size = 2
				}
			}
			random_owned_province = {
				limit = {
					is_capital = no
					is_in_capital_area = yes
					owner = { NOT = { adm_tech = 22 } }
				}
				spawn_rebels = {
					type = noble_rebels
					size = 2
				}
			}
		}
		if = {
			limit = {
				OR = {
					NOT = { num_of_cities = 2 }
					NOT = {
						any_owned_province = {
							is_capital = no
							is_in_capital_area = yes
						}
					}
				}
				capital_scope = {
					NOT = { has_province_modifier = wrecked_by_factional_riots } #If you already have it nothing happens, you're poor enough as it is.
				}
			}
			capital_scope = {
				add_province_modifier = {
					name = "wrecked_by_factional_riots"
					duration = 1825
				}
			}
		}
	}

	option = {
		name = "republic_factions.102.b" # Would they seriously prefer full bellies in a ruined Republic?
		custom_tooltip = republic_factions.103.b.tt
		add_stability = -1
		add_years_of_income = -0.25
		add_republican_tradition = 5
		add_faction_influence = {
			faction = mr_traders
			influence = -60
		}
		set_ruler_flag = leader_has_been_pushed_out
		country_event = { id = 700 }
	}
}


# Revolution against Aristocrats
country_event = {
	id = republic_factions.103
	title = "republic_factions.103.t"
	desc = "republic_factions.103.d"
	picture = ANGRY_MOB_eventPicture

	trigger = {
		has_dlc = "Res Publica"
		OR = {
			has_government_attribute = is_merchant_republic
			has_reform = veche_republic
		}
		OR = {
			NOT = { has_ruler_flag = republic_revolution }
			had_ruler_flag = { flag = republic_revolution days = 3650 }
		}
		NOT = { is_orangists_in_power = yes }
		faction_influence = {
			faction = mr_aristocrats
			influence = 80
		}
	}

	mean_time_to_happen = {
		months = 400
		modifier = {
			factor = 0.9
			faction_influence = {
				faction = mr_aristocrats
				influence = 90
			}
		}
		modifier = {
			factor = 0.9
			faction_influence = {
				faction = mr_aristocrats
				influence = 95
			}
		}
		modifier = {
			factor = 0.9
			faction_influence = {
				faction = mr_aristocrats
				influence = 100
			}
		}
		modifier = {
			factor = 0.9
			NOT = {
				faction_influence = {
					faction = mr_guilds
					influence = 5
				}
			}
		}
		modifier = {
			factor = 0.9
			NOT = {
				faction_influence = {
					faction = mr_traders
					influence = 5
				}
			}
		}
		modifier = {
			factor = 0.95
			NOT = { stability = 2 }
		}
		modifier = {
			factor = 0.95
			NOT = { stability = 1 }
		}
		modifier = {
			factor = 0.95
			NOT = { stability = 0 }
		}
		modifier = {
			factor = 0.8
			NOT = { stability = 2 }
		}
		modifier = {
			factor = 0.9
			NOT = { republican_tradition = 80 }
		}
		modifier = {
			factor = 0.9
			NOT = { republican_tradition = 60 }
		}
		modifier = {
			factor = 0.9
			NOT = { republican_tradition = 40 }
		}
	}

	immediate = {
		set_country_flag = "republic_revolution"
	}

	option = {
		name = "republic_factions.103.a" # We cannot possibly surrender to grocers!
		add_stability = -1
		add_prestige = -15
		add_republican_tradition = -20
		if = {
			limit = {
				num_of_cities = 2
				any_owned_province = {
					is_capital = no
					is_in_capital_area = yes
				}
			}
			random_owned_province = {
				limit = {
					is_capital = no
					is_in_capital_area = yes
					owner = { adm_tech = 22 }
				}
				spawn_rebels = {
					type = revolutionary_rebels
					size = 2
				}
			}
			random_owned_province = {
				limit = {
					is_capital = no
					is_in_capital_area = yes
					owner = { NOT = { adm_tech = 22 } }
				}
				spawn_rebels = {
					type = anti_tax_rebels
					size = 2
				}
			}
		}
		if = {
			limit = {
				OR = {
					NOT = { num_of_cities = 2 }
					NOT = {
						any_owned_province = {
							is_capital = no
							is_in_capital_area = yes
						}
					}
				}
				capital_scope = {
					NOT = { has_province_modifier = wrecked_by_factional_riots } #If you already have it nothing happens, you're poor enough as it is.
				}
			}
			capital_scope = {
				add_province_modifier = {
					name = "wrecked_by_factional_riots"
					duration = 1825
				}
			}
		}
	}

	option = {
		name = "republic_factions.103.b" # Well… What do these villains seriously want?
		custom_tooltip = republic_factions.103.b.tt
		add_stability = -1
		add_years_of_income = -0.25
		add_republican_tradition = 5
		add_faction_influence = {
			faction = mr_aristocrats
			influence = -60
		}
		set_ruler_flag = leader_has_been_pushed_out
		country_event = { id = 700 }
	}
}
